sizeX 32	
sizeY 32
sizeZ 32
timesteps 80000
dt 0.001
dx 0.001
tau 1.5
GravityX 0.0
GravityY 0.0
GravityZ 0.0
ForceX 0.0
ForceY 0.0
ForceZ 0.0

################## INIT
initPressure 1.0
initVelocityX_L 0.0
initVelocityY_L 0.0
initVelocityZ_L 0.0

################### OUTPUT
OutputVelocity Press_P_ZouHe_1_5_32
OutputDensity NULL
OutputFlag NULL
OutputDrag NULL

printstep 5000
tracestep 1000

################### BOUNDARY
Top    ZOU_HE_TOP_PRESSURE 0.0 0.0 0.0 1.0
Bottom ZOU_HE_BOTTOM_PRESSURE 0.0 0.0 0.0 1.0093
North  ZOU_HE_NORTH_VELOCITY 0.0 0.0 0.0 1.0
South  ZOU_HE_SOUTH_VELOCITY 0.0 0.0 0.0 1.0
East   ZOU_HE_EAST_VELOCITY 0.0 0.0 0.0 1.0
West   ZOU_HE_WEST_VELOCITY 0.0 0.0 0.0 1.0

################### EDGES
TopNorth     EDGE_TOP_NORTH_PRESSURE 0.0 0.0 0.0 1.0 
TopSouth     EDGE_TOP_SOUTH_PRESSURE 0.0 0.0 0.0 1.0
TopEast      EDGE_TOP_EAST_PRESSURE 0.0 0.0 0.0 1.0
TopWest      EDGE_TOP_WEST_PRESSURE 0.0 0.0 0.0 1.0
BottomNorth  EDGE_BOTTOM_NORTH_PRESSURE 0.0 0.0 0.0 1.0093
BottomSouth  EDGE_BOTTOM_SOUTH_PRESSURE 0.0 0.0 0.0 1.0093
BottomEast   EDGE_BOTTOM_EAST_PRESSURE 0.0 0.0 0.0 1.0093
BottomWest   EDGE_BOTTOM_WEST_PRESSURE 0.0 0.0 0.0 1.0093
NorthEast    EDGE_NORTH_EAST_VELOCITY 0.0 0.0 0.0 1.0
NorthWest    EDGE_NORTH_WEST_VELOCITY 0.0 0.0 0.0 1.0
SouthEast    EDGE_SOUTH_EAST_VELOCITY 0.0 0.0 0.0 1.0
SouthWest    EDGE_SOUTH_WEST_VELOCITY 0.0 0.0 0.0 1.0

################### CORNERS
TopNorthEast CORNER_TOP_NORTH_EAST_PRESSURE 0.0 0.0 0.0 1.0   
TopNorthWest CORNER_TOP_NORTH_WEST_PRESSURE 0.0 0.0 0.0 1.0   
TopSouthEast CORNER_TOP_SOUTH_EAST_PRESSURE 0.0 0.0 0.0 1.0   
TopSouthWest CORNER_TOP_SOUTH_WEST_PRESSURE 0.0 0.0 0.0 1.0   
BottomNorthEast CORNER_BOTTOM_NORTH_EAST_PRESSURE 0.0 0.0 0.0 1.0093
BottomNorthWest CORNER_BOTTOM_NORTH_WEST_PRESSURE 0.0 0.0 0.0 1.0093
BottomSouthEast CORNER_BOTTOM_SOUTH_EAST_PRESSURE 0.0 0.0 0.0 1.0093
BottomSouthWest CORNER_BOTTOM_SOUTH_WEST_PRESSURE 0.0 0.0 0.0 1.0093

################### OBSTACLES
#Sphere  29 29 29 5

